%YAML 1.1
%TAG !u! tag:unity3d.com,2011:
--- !u!21 &2100000
Material:
  serializedVersion: 6
  m_ObjectHideFlags: 0
  m_PrefabParentObject: {fileID: 0}
  m_PrefabInternal: {fileID: 0}
  m_Name: Red02
  m_Shader: {fileID: 104, guid: 0000000000000000f000000000000000, type: 0}
  m_ShaderKeywords: 
  m_LightmapFlags: 5
  m_CustomRenderQueue: -1
  stringTagMap: {}
  m_SavedProperties:
    serializedVersion: 2
    m_TexEnvs:
    - first:
        name: _BackTex
      second:
        m_Texture: {fileID: 2800000, guid: 6601b262566e8ed48bcd94e544e0fd2d, type: 3}
        m_Scale: {x: 1, y: 1}
        m_Offset: {x: 0, y: 0}
    - first:
        name: _DownTex
      second:
        m_Texture: {fileID: 2800000, guid: fe24c1d3a8341df488806f47b3a72356, type: 3}
        m_Scale: {x: 1, y: 1}
        m_Offset: {x: 0, y: 0}
    - first:
        name: _FrontTex
      second:
        m_Texture: {fileID: 2800000, guid: 7e077c5370349b247929c95a8b8ce75e, type: 3}
        m_Scale: {x: 1, y: 1}
        m_Offset: {x: 0, y: 0}
    - first:
        name: _LeftTex
      second:
        m_Texture: {fileID: 2800000, guid: 547e367b5b43c494e90431a6e38e87ac, type: 3}
        m_Scale: {x: 1, y: 1}
        m_Offset: {x: 0, y: 0}
    - first:
        name: _MainTex
      second:
        m_Texture: {fileID: 0}
        m_Scale: {x: 1, y: 1}
        m_Offset: {x: 0, y: 0}
    - first:
        name: _RightTex
      second:
        m_Texture: {fileID: 2800000, guid: 8d156f0545930a942b2ca6ed792014e9, type: 3}
        m_Scale: {x: 1, y: 1}
        m_Offset: {x: 0, y: 0}
    - first:
        name: _Tex
      second:
        m_Texture: {fileID: 8900000, guid: 9d0c1bf6b4d7ba2448e3265c9d3e4ae2, type: 2}
        m_Scale: {x: 1, y: 1}
        m_Offset: {x: 0, y: 0}
    - first:
        name: _UpTex
      second:
        m_Texture: {fileID: 2800000, guid: f0035d6da7d976a4f9e7d23bfa0fe7dc, type: 3}
        m_Scale: {x: 1, y: 1}
        m_Offset: {x: 0, y: 0}
    m_Floats:
    - first:
        name: _Exposure
      second: 1
    - first:
        name: _Rotation
      second: 0
    m_Colors:
    - first:
        name: _Color
      second: {r: 1, g: 1, b: 1, a: 1}
    - first:
        name: _Tint
      second: {r: 0.5019608, g: 0.5019608, b: 0.5019608, a: 0.5019608}
